#VRML V2.0 utf8

#   Created with V-Realm Builder v2.0
#   Integrated Data Systems Inc.
#   www.ids-net.com
SpotLight {
  location 0 30 0
  ambientIntensity 1
}
Background {
  skyColor [
    1 1 1,
    1 1 1,
    0.276597 0.485005 0.87,
    0.88 0.9856 1 
  ]
  skyAngle [0.1, 1.2, 1.57]
  groundColor [
    0.9 0.9 0.9,
    0.82 0.82 0.82,
    0.796808 0.82 0.7954,
    0.67 0.67 0.67 
  ]
  groundAngle [0.9, 1.5, 1.57]
}
Viewpoint {
  description "Standart view"
  position 0 0.8202 4
  orientation -1 0 0 0.0872659
}
Viewpoint {
  description "Birds view"
  position 0 20 40
  orientation -1 0 0 0.523599
}
Viewpoint {
  description "Close view"
  position 0 0 2.5
  orientation 1 0 0 0.0436358
}
DEF Ground Transform {
  translation 1.59875 -0.125008 -7.60102
  scale 1.2223 1.2223 1.2223
  rotation 1 0 0 3.14159
  children Shape {
    geometry Box {
      size 50 0.01 50
    }
    appearance Appearance {
      textureTransform TextureTransform {
        scale 10 10
      }
      texture ImageTexture {
        url "texture/texture_floor.jpg" 
      }
      material Material {
        specularColor 0.93 0.93 0.93
        shininess 0.5
        emissiveColor 0.83 0.83 0.83
        diffuseColor 0 0 0
        ambientIntensity 0.3
      }
    }
  }
}
DEF Bot Transform {
  children DEF Pendl_z Transform {
    bboxCenter 0 -5 0
    children [
      DEF Pendl_y Transform {
        scale 1 0.999999 1
        children DEF Pendl_x Transform {
          children [
            DEF Rezero_Body Transform {
              translation 0 0.53 0
              rotation 0 1 0 1.5708
              children Shape {
                geometry Cylinder {
                  radius 0.13
                  height 0.6
                }
                appearance Appearance {
                  texture ImageTexture {
                    url "texture/texture_cylinder.jpg" 
                  }
                  material Material {
                    shininess 0.1
                  }
                }
              }
            }
            Viewpoint {
              description "Rezero eye"
              position 0 0.8 0
              orientation 0 -1 0 0.00195313
            }
            DEF Omniwheel_1 Transform {
              translation 0.133263 0.127821 2.37009e-08
              scale 1 0.999999 1
              rotation 0 0 1 0.785398
              children [
                DEF Motor Transform {
                  translation 0 0.07 0
                  children Shape {
                    geometry Cylinder {
                      radius 0.02
                      height 0.14
                    }
                    appearance Appearance {
                      texture ImageTexture {
                        url "texture/texture_motor.jpg" 
                      }
                      material Material {
                      }
                    }
                  }
                }
                DEF Wheel1 Transform {
                  children Shape {
                    geometry Cylinder {
                      radius 0.06
                      height 0.02
                    }
                    appearance Appearance {
                      texture ImageTexture {
                        url "texture/texture_omniwheel.jpg" 
                      }
                      material Material {
                      }
                    }
                  }
                }
              ]
            }
            DEF Omniwheel_2 Transform {
              translation -0.0654074 0.130815 -0.113289
              scale 1 0.999999 1
              rotation 0.373672 0.902123 0.21574 2.18123
              children [
                Transform {
                  translation 0 0.07 0
                  children Shape {
                    geometry Cylinder {
                      radius 0.02
                      height 0.14
                    }
                    appearance Appearance {
                      texture ImageTexture {
                        url "texture/texture_motor.jpg" 
                      }
                      material Material {
                      }
                    }
                  }
                }
                DEF Wheel2 Transform {
                  children Shape {
                    geometry Cylinder {
                      radius 0.06
                      height 0.02
                    }
                    appearance Appearance {
                      texture ImageTexture {
                        url "texture/texture_omniwheel.jpg" 
                      }
                      material Material {
                      }
                    }
                  }
                }
              ]
            }
            DEF Omniwheel_3 Transform {
              translation -0.0654 0.1308 0.1133
              scale 1 0.999999 1
              rotation -0.373672 -0.902123 0.21574 2.18123
              children [
                Transform {
                  translation 0 0.07 0
                  children Shape {
                    geometry Cylinder {
                      radius 0.02
                      height 0.14
                    }
                    appearance Appearance {
                      texture ImageTexture {
                        url "texture/texture_motor.jpg" 
                      }
                      material Material {
                      }
                    }
                  }
                }
                DEF Wheel3 Transform {
                  children Shape {
                    geometry Cylinder {
                      radius 0.06
                      height 0.02
                    }
                    appearance Appearance {
                      texture ImageTexture {
                        url "texture/texture_omniwheel.jpg" 
                      }
                      material Material {
                      }
                    }
                  }
                }
              ]
            }
          ]
        }
      }
      DEF Sphere Transform {
        children Shape {
          geometry Sphere {
            radius 0.125
          }
          appearance Appearance {
            texture ImageTexture {
              url "texture/texture_ball.jpg" 
            }
            material Material {
            }
          }
        }
      }
      Viewpoint {
        description "Rezero follower"
        position 0 1.2 3
        orientation -1 0 0 0.261799
      }
    ]
  }
}